finallab6/finallab6.sim/sim_1/behav/xsim/ALU_TOP_tb.vcd
$date
   Mon Mar  2 11:43:00 2026
$end
$version
  2020.1
$end
$timescale
  1ps
$end
$scope module ALU_TOP_tb $end
$var reg 1 ! clk $end
$var reg 1 " rst_raw $end
$var reg 4 # sw [3:0] $end
$var wire 16 $ led [15:0] $end
$scope module dut $end
$var wire 1 % clk $end
$var wire 1 & rst_raw $end
$var wire 4 ' sw [3:0] $end
$var wire 16 $ led [15:0] $end
$var wire 1 ( rst $end
$var wire 32 ) A [31:0] $end
$var wire 32 * B [31:0] $end
$var wire 4 + ALUControl [3:0] $end
$var wire 32 , ALUResult [31:0] $end
$var wire 1 - Zero $end
$scope module db_rst $end
$var wire 1 % clk $end
$var wire 1 & pbin $end
$var reg 1 . pbout $end
$var reg 19 / stable_cnt [18:0] $end
$var reg 1 0 prev_in $end
$var parameter 32 1 STABLE_MAX [31:0] $end
$upscope $end
$scope module alu_inst $end
$var wire 32 ) A [31:0] $end
$var wire 32 * B [31:0] $end
$var wire 4 + ALUControl [3:0] $end
$var reg 32 2 ALUResult [31:0] $end
$var wire 1 - Zero $end
$var wire 32 3 B_for_adder [31:0] $end
$var wire 33 4 carry [32:0] $end
$var wire 32 5 add_result [31:0] $end
$var reg 32 6 B_temp [31:0] $end
$var reg 1 7 cin_lsb $end
$var wire 32 8 and_result [31:0] $end
$var wire 32 9 or_result [31:0] $end
$var wire 32 : xor_result [31:0] $end
$var wire 32 ; sll_result [31:0] $end
$var wire 32 < srl_result [31:0] $end
$var parameter 4 = AND_OP [3:0] $end
$var parameter 4 > OR_OP [3:0] $end
$var parameter 4 ? ADD_OP [3:0] $end
$var parameter 4 @ SUB_OP [3:0] $end
$var parameter 4 A XOR_OP [3:0] $end
$var parameter 4 B SLL_OP [3:0] $end
$var parameter 4 C SRL_OP [3:0] $end
$scope module ripple_adder[0].fa $end
$var wire 1 D a $end
$var wire 1 E b $end
$var wire 1 F cin $end
$var reg 1 G sum $end
$var reg 1 H cout $end
$upscope $end
$scope module ripple_adder[1].fa $end
$var wire 1 I a $end
$var wire 1 J b $end
$var wire 1 K cin $end
$var reg 1 L sum $end
$var reg 1 M cout $end
$upscope $end
$scope module ripple_adder[2].fa $end
$var wire 1 N a $end
$var wire 1 O b $end
$var wire 1 P cin $end
$var reg 1 Q sum $end
$var reg 1 R cout $end
$upscope $end
$scope module ripple_adder[3].fa $end
$var wire 1 S a $end
$var wire 1 T b $end
$var wire 1 U cin $end
$var reg 1 V sum $end
$var reg 1 W cout $end
$upscope $end
$scope module ripple_adder[4].fa $end
$var wire 1 X a $end
$var wire 1 Y b $end
$var wire 1 Z cin $end
$var reg 1 [ sum $end
$var reg 1 \ cout $end
$upscope $end
$scope module ripple_adder[5].fa $end
$var wire 1 ] a $end
$var wire 1 ^ b $end
$var wire 1 _ cin $end
$var reg 1 ` sum $end
$var reg 1 a cout $end
$upscope $end
$scope module ripple_adder[6].fa $end
$var wire 1 b a $end
$var wire 1 c b $end
$var wire 1 d cin $end
$var reg 1 e sum $end
$var reg 1 f cout $end
$upscope $end
$scope module ripple_adder[7].fa $end
$var wire 1 g a $end
$var wire 1 h b $end
$var wire 1 i cin $end
$var reg 1 j sum $end
$var reg 1 k cout $end
$upscope $end
$scope module ripple_adder[8].fa $end
$var wire 1 l a $end
$var wire 1 m b $end
$var wire 1 n cin $end
$var reg 1 o sum $end
$var reg 1 p cout $end
$upscope $end
$scope module ripple_adder[9].fa $end
$var wire 1 q a $end
$var wire 1 r b $end
$var wire 1 s cin $end
$var reg 1 t sum $end
$var reg 1 u cout $end
$upscope $end
$scope module ripple_adder[10].fa $end
$var wire 1 v a $end
$var wire 1 w b $end
$var wire 1 x cin $end
$var reg 1 y sum $end
$var reg 1 z cout $end
$upscope $end
$scope module ripple_adder[11].fa $end
$var wire 1 { a $end
$var wire 1 | b $end
$var wire 1 } cin $end
$var reg 1 ~ sum $end
$var reg 1 !! cout $end
$upscope $end
$scope module ripple_adder[12].fa $end
$var wire 1 "! a $end
$var wire 1 #! b $end
$var wire 1 $! cin $end
$var reg 1 %! sum $end
$var reg 1 &! cout $end
$upscope $end
$scope module ripple_adder[13].fa $end
$var wire 1 '! a $end
$var wire 1 (! b $end
$var wire 1 )! cin $end
$var reg 1 *! sum $end
$var reg 1 +! cout $end
$upscope $end
$scope module ripple_adder[14].fa $end
$var wire 1 ,! a $end
$var wire 1 -! b $end
$var wire 1 .! cin $end
$var reg 1 /! sum $end
$var reg 1 0! cout $end
$upscope $end
$scope module ripple_adder[15].fa $end
$var wire 1 1! a $end
$var wire 1 2! b $end
$var wire 1 3! cin $end
$var reg 1 4! sum $end
$var reg 1 5! cout $end
$upscope $end
$scope module ripple_adder[16].fa $end
$var wire 1 6! a $end
$var wire 1 7! b $end
$var wire 1 8! cin $end
$var reg 1 9! sum $end
$var reg 1 :! cout $end
$upscope $end
$scope module ripple_adder[17].fa $end
$var wire 1 ;! a $end
$var wire 1 <! b $end
$var wire 1 =! cin $end
$var reg 1 >! sum $end
$var reg 1 ?! cout $end
$upscope $end
$scope module ripple_adder[18].fa $end
$var wire 1 @! a $end
$var wire 1 A! b $end
$var wire 1 B! cin $end
$var reg 1 C! sum $end
$var reg 1 D! cout $end
$upscope $end
$scope module ripple_adder[19].fa $end
$var wire 1 E! a $end
$var wire 1 F! b $end
$var wire 1 G! cin $end
$var reg 1 H! sum $end
$var reg 1 I! cout $end
$upscope $end
$scope module ripple_adder[20].fa $end
$var wire 1 J! a $end
$var wire 1 K! b $end
$var wire 1 L! cin $end
$var reg 1 M! sum $end
$var reg 1 N! cout $end
$upscope $end
$scope module ripple_adder[21].fa $end
$var wire 1 O! a $end
$var wire 1 P! b $end
$var wire 1 Q! cin $end
$var reg 1 R! sum $end
$var reg 1 S! cout $end
$upscope $end
$scope module ripple_adder[22].fa $end
$var wire 1 T! a $end
$var wire 1 U! b $end
$var wire 1 V! cin $end
$var reg 1 W! sum $end
$var reg 1 X! cout $end
$upscope $end
$scope module ripple_adder[23].fa $end
$var wire 1 Y! a $end
$var wire 1 Z! b $end
$var wire 1 [! cin $end
$var reg 1 \! sum $end
$var reg 1 ]! cout $end
$upscope $end
$scope module ripple_adder[24].fa $end
$var wire 1 ^! a $end
$var wire 1 _! b $end
$var wire 1 `! cin $end
$var reg 1 a! sum $end
$var reg 1 b! cout $end
$upscope $end
$scope module ripple_adder[25].fa $end
$var wire 1 c! a $end
$var wire 1 d! b $end
$var wire 1 e! cin $end
$var reg 1 f! sum $end
$var reg 1 g! cout $end
$upscope $end
$scope module ripple_adder[26].fa $end
$var wire 1 h! a $end
$var wire 1 i! b $end
$var wire 1 j! cin $end
$var reg 1 k! sum $end
$var reg 1 l! cout $end
$upscope $end
$scope module ripple_adder[27].fa $end
$var wire 1 m! a $end
$var wire 1 n! b $end
$var wire 1 o! cin $end
$var reg 1 p! sum $end
$var reg 1 q! cout $end
$upscope $end
$scope module ripple_adder[28].fa $end
$var wire 1 r! a $end
$var wire 1 s! b $end
$var wire 1 t! cin $end
$var reg 1 u! sum $end
$var reg 1 v! cout $end
$upscope $end
$scope module ripple_adder[29].fa $end
$var wire 1 w! a $end
$var wire 1 x! b $end
$var wire 1 y! cin $end
$var reg 1 z! sum $end
$var reg 1 {! cout $end
$upscope $end
$scope module ripple_adder[30].fa $end
$var wire 1 |! a $end
$var wire 1 }! b $end
$var wire 1 ~! cin $end
$var reg 1 !" sum $end
$var reg 1 "" cout $end
$upscope $end
$scope module ripple_adder[31].fa $end
$var wire 1 #" a $end
$var wire 1 $" b $end
$var wire 1 %" cin $end
$var reg 1 &" sum $end
$var reg 1 '" cout $end
$upscope $end
$upscope $end
$upscope $end
$upscope $end
$enddefinitions $end
#0
$dumpvars
0!
0!!
0!"
1"
1"!
0""
b0 #
0#!
0#"
b1000000000000000 $
0$!
0$"
0%
1%!
0%"
1&
0&!
0&"
b0 '
0'!
0'"
0(
0(!
b10000000100000001000000010000 )
0)!
b1000000010000000100000001 *
0*!
b0 +
0+!
b0 ,
0,!
1-
0-!
0.
0.!
b0 /
0/!
00
00!
b1111010000100100000 1
01!
b0 2
02!
b1000000010000000100000001 3
03!
b0 4
04!
b10001000100010001000100010001 5
05!
b1000000010000000100000001 6
06!
07
17!
b0 8
08!
b10001000100010001000100010001 9
19!
b10001000100010001000100010001 :
0:!
b100000001000000010000000100000 ;
0;!
b1000000010000000100000001000 <
0<!
b0 =
0=!
b1 >
0>!
b10 ?
0?!
b110 @
0@!
b100 A
0A!
b1000 B
0B!
b1001 C
0C!
0D
0D!
1E
0E!
0F
0F!
1G
0G!
0H
0H!
0I
0I!
0J
1J!
0K
0K!
0L
0L!
0M
1M!
0N
0N!
0O
0O!
0P
0P!
0Q
0Q!
0R
0R!
0S
0S!
0T
0T!
0U
0U!
0V
0V!
0W
0W!
1X
0X!
0Y
0Y!
0Z
0Z!
1[
0[!
0\
0\!
0]
0]!
0^
0^!
0_
1_!
0`
0`!
0a
1a!
0b
0b!
0c
0c!
0d
0d!
0e
0e!
0f
0f!
0g
0g!
0h
0h!
0i
0i!
0j
0j!
0k
0k!
0l
0l!
1m
0m!
0n
0n!
1o
0o!
0p
0p!
0q
0q!
0r
1r!
0s
0s!
0t
0t!
0u
1u!
0v
0v!
0w
0w!
0x
0x!
0y
0y!
0z
0z!
0{
0{!
0|
0|!
0}
0}!
0~
0~!
$end
#5000
1!
1%
10
#10000
0!
0%
#15000
1!
1%
b1 /
#20000
0!
0%
#25000
1!
1%
b10 /
#30000
0!
0%
#35000
1!
1%
b11 /
#40000
0!
0%
#45000
1!
1%
b100 /
#50000
0!
0%
#55000
1!
1%
b101 /
#60000
0!
0%
#65000
1!
1%
b110 /
#70000
0!
0%
#75000
1!
1%
b111 /
#80000
0!
0%
#85000
1!
1%
b1000 /
#90000
0!
0%
#95000
1!
1%
b1001 /
#100000
0!
0"
0%
0&
#105000
1!
1%
b0 /
00
#110000
0!
0%
#115000
1!
1%
b1 /
#120000
0!
0%
#125000
1!
1%
b10 /
#130000
0!
0%
#135000
1!
1%
b11 /
#140000
0!
0%
#145000
1!
1%
b100 /
#150000
0!
0%
#155000
1!
1%
b101 /
#160000
0!
0%
#165000
1!
1%
b110 /
#170000
0!
0%
#175000
1!
1%
b111 /
#180000
0!
0%
#185000
1!
1%
b1000 /
#190000
0!
0%
#195000
1!
1%
b1001 /
#200000
0!
b0 #
0%
#205000
1!
1%
b1010 /
#210000
0!
0%
#215000
1!
1%
b1011 /
#220000
0!
0%
#225000
1!
1%
b1100 /
#230000
0!
0%
#235000
1!
1%
b1101 /
#240000
0!
0%
#245000
1!
1%
b1110 /
#250000
0!
0%
#255000
1!
1%
b1111 /
#260000
0!
0%
#265000
1!
1%
b10000 /
#270000
0!
0%
#275000
1!
1%
b10001 /
#280000
0!
0%
#285000
1!
1%
b10010 /
#290000
0!
0%
#295000
1!
1%
b10011 /
#300000
0!
0%
#305000
1!
1%
b10100 /
#310000
0!
0%
#315000
1!
1%
b10101 /
#320000
0!
0%
#325000
1!
1%
b10110 /
#330000
0!
0%
#335000
1!
1%
b10111 /
#340000
0!
0%
#345000
1!
1%
b11000 /
#350000
0!
0%
#355000
1!
1%
b11001 /
#360000
0!
0%
#365000
1!
1%
b11010 /
#370000
0!
0%
#375000
1!
1%
b11011 /
#380000
0!
0%
#385000
1!
1%
b11100 /
#390000
0!
0%
#395000
1!
1%
b11101 /
#400000
0!
0%
#405000
1!
1%
b11110 /
#410000
0!
0%
#415000
1!
1%
b11111 /
#420000
0!
0%
#425000
1!
1%
b100000 /
#430000
0!
0%
#435000
1!
1%
b100001 /
#440000
0!
0%
#445000
1!
1%
b100010 /
#450000
0!
0%
#455000
1!
1%
b100011 /
#460000
0!
0%
#465000
1!
1%
b100100 /
#470000
0!
0%
#475000
1!
1%
b100101 /
#480000
0!
0%
#485000
1!
1%
b100110 /
#490000
0!
0%
#495000
1!
1%
b100111 /
#500000
0!
b1 #
b1000100010001 $
0%
b1 '
b1 +
b10001000100010001000100010001 ,
0-
b10001000100010001000100010001 2
b1000000010000000100000001 6
#505000
1!
1%
b101000 /
#510000
0!
0%
#515000
1!
1%
b101001 /
#520000
0!
0%
#525000
1!
1%
b101010 /
#530000
0!
0%
#535000
1!
1%
b101011 /
#540000
0!
0%
#545000
1!
1%
b101100 /
#550000
0!
0%
#555000
1!
1%
b101101 /
#560000
0!
0%
#565000
1!
1%
b101110 /
#570000
0!
0%
#575000
1!
1%
b101111 /
#580000
0!
0%
#585000
1!
1%
b110000 /
#590000
0!
0%
#595000
1!
1%
b110001 /
#600000
0!
0%
#605000
1!
1%
b110010 /
#610000
0!
0%
#615000
1!
1%
b110011 /
#620000
0!
0%
#625000
1!
1%
b110100 /
#630000
0!
0%
#635000
1!
1%
b110101 /
#640000
0!
0%
#645000
1!
1%
b110110 /
#650000
0!
0%
#655000
1!
1%
b110111 /
#660000
0!
0%
#665000
1!
1%
b111000 /
#670000
0!
0%
#675000
1!
1%
b111001 /
#680000
0!
0%
#685000
1!
1%
b111010 /
#690000
0!
0%
#695000
1!
1%
b111011 /
#700000
0!
0%
#705000
1!
1%
b111100 /
#710000
0!
0%
#715000
1!
1%
b111101 /
#720000
0!
0%
#725000
1!
1%
b111110 /
#730000
0!
0%
#735000
1!
1%
b111111 /
#740000
0!
0%
#745000
1!
1%
b1000000 /
#750000
0!
0%
#755000
1!
1%
b1000001 /
#760000
0!
0%
#765000
1!
1%
b1000010 /
#770000
0!
0%
#775000
1!
1%
b1000011 /
#780000
0!
0%
#785000
1!
1%
b1000100 /
#790000
0!
0%
#795000
1!
1%
b1000101 /
#800000
0!
b10 #
0%
b10 '
b10 +
b10001000100010001000100010001 2
b1000000010000000100000001 6
#805000
1!
1%
b1000110 /
#810000
0!
0%
#815000
1!
1%
b1000111 /
#820000
0!
0%
#825000
1!
1%
b1001000 /
#830000
0!
0%
#835000
1!
1%
b1001001 /
#840000
0!
0%
#845000
1!
1%
b1001010 /
#850000
0!
0%
#855000
1!
1%
b1001011 /
#860000
0!
0%
#865000
1!
1%
b1001100 /
#870000
0!
0%
#875000
1!
1%
b1001101 /
#880000
0!
0%
#885000
1!
1%
b1001110 /
#890000
0!
0%
#895000
1!
1%
b1001111 /
#900000
0!
0%
#905000
1!
1%
b1010000 /
#910000
0!
0%
#915000
1!
1%
b1010001 /
#920000
0!
0%
#925000
1!
1%
b1010010 /
#930000
0!
0%
#935000
1!
1%
b1010011 /
#940000
0!
0%
#945000
1!
1%
b1010100 /
#950000
0!
0%
#955000
1!
1%
b1010101 /
#960000
0!
0%
#965000
1!
1%
b1010110 /
#970000
0!
0%
#975000
1!
1%
b1010111 /
#980000
0!
0%
#985000
1!
1%
b1011000 /
#990000
0!
0%
#995000
1!
1%
b1011001 /
